EESchema Schematic File Version 4
EELAYER 30 0
EELAYER END
$Descr A4 11693 8268
encoding utf-8
Sheet 1 1
Title ""
Date ""
Rev ""
Comp ""
Comment1 ""
Comment2 ""
Comment3 ""
Comment4 ""
$EndDescr
Wire Wire Line
	2880 3390 2930 3390
$Comp
L Device:C_Small C3
U 1 1 60B81006
P 3230 3565
F 0 "C3" H 3322 3611 50  0000 L CNN
F 1 "10u" H 3322 3520 50  0000 L CNN
F 2 "Capacitor_SMD:C_0805_2012Metric_Pad1.18x1.45mm_HandSolder" H 3230 3565 50  0001 C CNN
F 3 "~" H 3230 3565 50  0001 C CNN
	1    3230 3565
	1    0    0    -1  
$EndComp
$Comp
L Device:C_Small C2
U 1 1 60B810FD
P 2930 3565
F 0 "C2" H 3022 3611 50  0000 L CNN
F 1 "0.1u" H 3022 3520 50  0000 L CNN
F 2 "Capacitor_SMD:C_0805_2012Metric_Pad1.18x1.45mm_HandSolder" H 2930 3565 50  0001 C CNN
F 3 "~" H 2930 3565 50  0001 C CNN
	1    2930 3565
	1    0    0    -1  
$EndComp
Wire Wire Line
	2930 3465 2930 3390
Connection ~ 2930 3390
Wire Wire Line
	2930 3390 3230 3390
Wire Wire Line
	3230 3465 3230 3390
Connection ~ 3230 3390
Wire Wire Line
	2930 3665 2930 3790
Wire Wire Line
	2930 3790 2580 3790
Wire Wire Line
	3230 3665 3230 3790
Wire Wire Line
	3230 3790 2930 3790
Connection ~ 2930 3790
$Comp
L Device:C_Small C1
U 1 1 60B8163E
P 1755 3515
F 0 "C1" H 1847 3561 50  0000 L CNN
F 1 "10u" H 1847 3470 50  0000 L CNN
F 2 "Capacitor_SMD:C_0805_2012Metric_Pad1.18x1.45mm_HandSolder" H 1755 3515 50  0001 C CNN
F 3 "~" H 1755 3515 50  0001 C CNN
	1    1755 3515
	1    0    0    -1  
$EndComp
Wire Wire Line
	1755 3390 1755 3415
Wire Wire Line
	1755 3615 1755 3790
Wire Wire Line
	1755 3790 2480 3790
Connection ~ 2480 3790
$Comp
L power:+3.3V #PWR03
U 1 1 60B81C89
P 3230 3315
F 0 "#PWR03" H 3230 3165 50  0001 C CNN
F 1 "+3.3V" H 3245 3488 50  0000 C CNN
F 2 "" H 3230 3315 50  0001 C CNN
F 3 "" H 3230 3315 50  0001 C CNN
	1    3230 3315
	1    0    0    -1  
$EndComp
$Comp
L power:+5V #PWR02
U 1 1 60B81D28
P 1755 3290
F 0 "#PWR02" H 1755 3140 50  0001 C CNN
F 1 "+5V" H 1770 3463 50  0000 C CNN
F 2 "" H 1755 3290 50  0001 C CNN
F 3 "" H 1755 3290 50  0001 C CNN
	1    1755 3290
	1    0    0    -1  
$EndComp
Wire Wire Line
	1755 3290 1755 3390
Connection ~ 1755 3390
Wire Wire Line
	3230 3315 3230 3390
$Comp
L power:Earth #PWR05
U 1 1 60B840CC
P 6500 1630
F 0 "#PWR05" H 6500 1380 50  0001 C CNN
F 1 "Earth" H 6500 1480 50  0001 C CNN
F 2 "" H 6500 1630 50  0001 C CNN
F 3 "~" H 6500 1630 50  0001 C CNN
	1    6500 1630
	-1   0    0    1   
$EndComp
$Comp
L power:Earth #PWR06
U 1 1 60B84145
P 10370 3515
F 0 "#PWR06" H 10370 3265 50  0001 C CNN
F 1 "Earth" H 10370 3365 50  0001 C CNN
F 2 "" H 10370 3515 50  0001 C CNN
F 3 "~" H 10370 3515 50  0001 C CNN
	1    10370 3515
	-1   0    0    -1  
$EndComp
$Comp
L power:Earth #PWR07
U 1 1 60B847F3
P 2480 3865
F 0 "#PWR07" H 2480 3615 50  0001 C CNN
F 1 "Earth" H 2480 3715 50  0001 C CNN
F 2 "" H 2480 3865 50  0001 C CNN
F 3 "~" H 2480 3865 50  0001 C CNN
	1    2480 3865
	1    0    0    -1  
$EndComp
Wire Wire Line
	2480 3865 2480 3790
$Comp
L power:+3.3V #PWR01
U 1 1 60B865CE
P 9425 2915
F 0 "#PWR01" H 9425 2765 50  0001 C CNN
F 1 "+3.3V" H 9440 3088 50  0000 C CNN
F 2 "" H 9425 2915 50  0001 C CNN
F 3 "" H 9425 2915 50  0001 C CNN
	1    9425 2915
	1    0    0    -1  
$EndComp
$Comp
L Device:R_Small R2
U 1 1 60B88958
P 9425 3140
F 0 "R2" H 9484 3186 50  0000 L CNN
F 1 "2.2k" H 9484 3095 50  0000 L CNN
F 2 "Resistor_SMD:R_0805_2012Metric_Pad1.20x1.40mm_HandSolder" H 9425 3140 50  0001 C CNN
F 3 "~" H 9425 3140 50  0001 C CNN
	1    9425 3140
	1    0    0    -1  
$EndComp
$Comp
L Device:R_Small R1
U 1 1 60B889D8
P 9200 3040
F 0 "R1" H 9259 3086 50  0000 L CNN
F 1 "2.2k" H 9259 2995 50  0000 L CNN
F 2 "Resistor_SMD:R_0805_2012Metric_Pad1.20x1.40mm_HandSolder" H 9200 3040 50  0001 C CNN
F 3 "~" H 9200 3040 50  0001 C CNN
	1    9200 3040
	0    -1   -1   0   
$EndComp
Wire Wire Line
	9300 3040 9425 3040
Connection ~ 9425 3040
Wire Wire Line
	9425 3040 9425 2915
Wire Wire Line
	9100 3040 8775 3040
Text Notes 9480 3680 0    50   ~ 0
SCL
Text Notes 9500 3490 0    50   ~ 0
SDA
Wire Wire Line
	3230 4065 3230 3790
Connection ~ 3230 3790
$Comp
L Device:R_Small R5
U 1 1 60BAD84C
P 6755 2110
F 0 "R5" H 6814 2156 50  0000 L CNN
F 1 "4.7k" H 6814 2065 50  0000 L CNN
F 2 "Resistor_SMD:R_0805_2012Metric_Pad1.20x1.40mm_HandSolder" H 6755 2110 50  0001 C CNN
F 3 "~" H 6755 2110 50  0001 C CNN
	1    6755 2110
	1    0    0    -1  
$EndComp
$Comp
L Device:R_Small R23
U 1 1 60D64512
P 5265 2190
F 0 "R23" V 5461 2190 50  0000 C CNN
F 1 "220" V 5370 2190 50  0000 C CNN
F 2 "Resistor_SMD:R_0805_2012Metric_Pad1.20x1.40mm_HandSolder" H 5265 2190 50  0001 C CNN
F 3 "~" H 5265 2190 50  0001 C CNN
	1    5265 2190
	0    1    1    0   
$EndComp
$Comp
L Device:LED D2
U 1 1 60D71DB9
P 4940 2190
F 0 "D2" H 4932 2406 50  0000 C CNN
F 1 "LED" H 4932 2315 50  0000 C CNN
F 2 "LED_SMD:LED_0603_1608Metric_Pad1.05x0.95mm_HandSolder" H 4940 2190 50  0001 C CNN
F 3 "~" H 4940 2190 50  0001 C CNN
	1    4940 2190
	1    0    0    1   
$EndComp
Wire Wire Line
	5165 2190 5090 2190
$Comp
L power:Earth #PWR022
U 1 1 60D802A4
P 4690 2190
F 0 "#PWR022" H 4690 1940 50  0001 C CNN
F 1 "Earth" H 4690 2040 50  0001 C CNN
F 2 "" H 4690 2190 50  0001 C CNN
F 3 "~" H 4690 2190 50  0001 C CNN
	1    4690 2190
	0    1    1    0   
$EndComp
Wire Wire Line
	4690 2190 4790 2190
$Comp
L Device:R_Small R22
U 1 1 60D87658
P 9875 2215
F 0 "R22" V 10071 2215 50  0000 C CNN
F 1 "220" V 9980 2215 50  0000 C CNN
F 2 "Resistor_SMD:R_0805_2012Metric_Pad1.20x1.40mm_HandSolder" H 9875 2215 50  0001 C CNN
F 3 "~" H 9875 2215 50  0001 C CNN
	1    9875 2215
	0    -1   -1   0   
$EndComp
$Comp
L Device:LED D1
U 1 1 60D8765F
P 10200 2215
F 0 "D1" H 10192 2431 50  0000 C CNN
F 1 "LED" H 10192 2340 50  0000 C CNN
F 2 "LED_SMD:LED_0603_1608Metric_Pad1.05x0.95mm_HandSolder" H 10200 2215 50  0001 C CNN
F 3 "~" H 10200 2215 50  0001 C CNN
	1    10200 2215
	-1   0    0    -1  
$EndComp
Wire Wire Line
	9975 2215 10050 2215
$Comp
L power:Earth #PWR021
U 1 1 60D87667
P 10450 2215
F 0 "#PWR021" H 10450 1965 50  0001 C CNN
F 1 "Earth" H 10450 2065 50  0001 C CNN
F 2 "" H 10450 2215 50  0001 C CNN
F 3 "~" H 10450 2215 50  0001 C CNN
	1    10450 2215
	0    -1   -1   0   
$EndComp
Wire Wire Line
	10450 2215 10350 2215
$Comp
L power:+3.3V #PWR020
U 1 1 60D8EBBF
P 9625 2215
F 0 "#PWR020" H 9625 2065 50  0001 C CNN
F 1 "+3.3V" H 9640 2388 50  0000 C CNN
F 2 "" H 9625 2215 50  0001 C CNN
F 3 "" H 9625 2215 50  0001 C CNN
	1    9625 2215
	0    -1   -1   0   
$EndComp
Wire Wire Line
	9625 2215 9775 2215
Wire Wire Line
	8775 3880 9425 3880
Wire Wire Line
	9425 3490 9425 3880
$Comp
L power:+3.3V #PWR04
U 1 1 6301264D
P 6500 1930
F 0 "#PWR04" H 6500 1780 50  0001 C CNN
F 1 "+3.3V" H 6515 2103 50  0000 C CNN
F 2 "" H 6500 1930 50  0001 C CNN
F 3 "" H 6500 1930 50  0001 C CNN
	1    6500 1930
	-1   0    0    1   
$EndComp
$Comp
L DRV8212DSGR:DRV8212DSGR IC1
U 1 1 63025B0B
P 2005 4985
F 0 "IC1" H 2605 5250 50  0000 C CNN
F 1 "DRV8212DSGR" H 2605 5159 50  0000 C CNN
F 2 "DRV8212DSGR:SON50P200X200X80-9N" H 3055 5085 50  0001 L CNN
F 3 "https://www.ti.com/lit/ds/symlink/drv8212.pdf?ts=1649239749819&ref_url=https%253A%252F%252Fwww.google.com%252F" H 3055 4985 50  0001 L CNN
F 4 "Motor/Motion/Ignition Controllers & Drivers 12-V, 2-A Low voltag e H-bridge motor dr" H 3055 4885 50  0001 L CNN "Description"
F 5 "0.8" H 3055 4785 50  0001 L CNN "Height"
F 6 "Texas Instruments" H 3055 4685 50  0001 L CNN "Manufacturer_Name"
F 7 "DRV8212DSGR" H 3055 4585 50  0001 L CNN "Manufacturer_Part_Number"
F 8 "595-DRV8212DSGR" H 3055 4485 50  0001 L CNN "Mouser Part Number"
F 9 "https://www.mouser.co.uk/ProductDetail/Texas-Instruments/DRV8212DSGR?qs=QNEnbhJQKvYBJvBIzhVqZw%3D%3D" H 3055 4385 50  0001 L CNN "Mouser Price/Stock"
F 10 "" H 3055 4285 50  0001 L CNN "Arrow Part Number"
F 11 "" H 3055 4185 50  0001 L CNN "Arrow Price/Stock"
	1    2005 4985
	1    0    0    -1  
$EndComp
$Comp
L DRV8212DSGR:DRV8212DSGR IC2
U 1 1 630281BF
P 8830 5460
F 0 "IC2" H 9430 5725 50  0000 C CNN
F 1 "DRV8212DSGR" H 9430 5634 50  0000 C CNN
F 2 "DRV8212DSGR:SON50P200X200X80-9N" H 9880 5560 50  0001 L CNN
F 3 "https://www.ti.com/lit/ds/symlink/drv8212.pdf?ts=1649239749819&ref_url=https%253A%252F%252Fwww.google.com%252F" H 9880 5460 50  0001 L CNN
F 4 "Motor/Motion/Ignition Controllers & Drivers 12-V, 2-A Low voltag e H-bridge motor dr" H 9880 5360 50  0001 L CNN "Description"
F 5 "0.8" H 9880 5260 50  0001 L CNN "Height"
F 6 "Texas Instruments" H 9880 5160 50  0001 L CNN "Manufacturer_Name"
F 7 "DRV8212DSGR" H 9880 5060 50  0001 L CNN "Manufacturer_Part_Number"
F 8 "595-DRV8212DSGR" H 9880 4960 50  0001 L CNN "Mouser Part Number"
F 9 "https://www.mouser.co.uk/ProductDetail/Texas-Instruments/DRV8212DSGR?qs=QNEnbhJQKvYBJvBIzhVqZw%3D%3D" H 9880 4860 50  0001 L CNN "Mouser Price/Stock"
F 10 "" H 9880 4760 50  0001 L CNN "Arrow Part Number"
F 11 "" H 9880 4660 50  0001 L CNN "Arrow Price/Stock"
	1    8830 5460
	-1   0    0    -1  
$EndComp
$Comp
L Device:C_Small C7
U 1 1 6302FC08
P 1835 4765
F 0 "C7" H 1927 4811 50  0000 L CNN
F 1 "10u" H 1927 4720 50  0000 L CNN
F 2 "Capacitor_SMD:C_0805_2012Metric_Pad1.18x1.45mm_HandSolder" H 1835 4765 50  0001 C CNN
F 3 "~" H 1835 4765 50  0001 C CNN
	1    1835 4765
	1    0    0    -1  
$EndComp
$Comp
L Device:C_Small C6
U 1 1 6302FC0E
P 1535 4765
F 0 "C6" H 1627 4811 50  0000 L CNN
F 1 "0.1u" H 1627 4720 50  0000 L CNN
F 2 "Capacitor_SMD:C_0805_2012Metric_Pad1.18x1.45mm_HandSolder" H 1535 4765 50  0001 C CNN
F 3 "~" H 1535 4765 50  0001 C CNN
	1    1535 4765
	1    0    0    -1  
$EndComp
$Comp
L Device:C_Small C10
U 1 1 630319B8
P 9010 5315
F 0 "C10" H 9102 5361 50  0000 L CNN
F 1 "10u" H 9102 5270 50  0000 L CNN
F 2 "Capacitor_SMD:C_0805_2012Metric_Pad1.18x1.45mm_HandSolder" H 9010 5315 50  0001 C CNN
F 3 "~" H 9010 5315 50  0001 C CNN
	1    9010 5315
	-1   0    0    -1  
$EndComp
$Comp
L Device:C_Small C11
U 1 1 630319BE
P 9310 5315
F 0 "C11" H 9402 5361 50  0000 L CNN
F 1 "0.1u" H 9402 5270 50  0000 L CNN
F 2 "Capacitor_SMD:C_0805_2012Metric_Pad1.18x1.45mm_HandSolder" H 9310 5315 50  0001 C CNN
F 3 "~" H 9310 5315 50  0001 C CNN
	1    9310 5315
	-1   0    0    -1  
$EndComp
Wire Wire Line
	8830 5460 9010 5460
Wire Wire Line
	9310 5460 9310 5415
Wire Wire Line
	9010 5415 9010 5460
Connection ~ 9010 5460
Wire Wire Line
	9010 5460 9310 5460
Wire Wire Line
	9010 5215 9160 5215
Wire Wire Line
	2005 4985 1835 4985
Wire Wire Line
	1535 4985 1535 4865
Wire Wire Line
	1835 4865 1835 4985
Connection ~ 1835 4985
Wire Wire Line
	1835 4985 1535 4985
Wire Wire Line
	1835 4665 1690 4665
$Comp
L power:Earth #PWR019
U 1 1 6304185B
P 1690 4640
F 0 "#PWR019" H 1690 4390 50  0001 C CNN
F 1 "Earth" H 1690 4490 50  0001 C CNN
F 2 "" H 1690 4640 50  0001 C CNN
F 3 "~" H 1690 4640 50  0001 C CNN
	1    1690 4640
	-1   0    0    1   
$EndComp
Wire Wire Line
	1690 4640 1690 4665
Connection ~ 1690 4665
Wire Wire Line
	1690 4665 1535 4665
$Comp
L power:Earth #PWR028
U 1 1 6304B254
P 9160 5190
F 0 "#PWR028" H 9160 4940 50  0001 C CNN
F 1 "Earth" H 9160 5040 50  0001 C CNN
F 2 "" H 9160 5190 50  0001 C CNN
F 3 "~" H 9160 5190 50  0001 C CNN
	1    9160 5190
	1    0    0    1   
$EndComp
Wire Wire Line
	9160 5190 9160 5215
Connection ~ 9160 5215
Wire Wire Line
	9160 5215 9310 5215
$Comp
L power:+5V #PWR025
U 1 1 630528C0
P 1500 4985
F 0 "#PWR025" H 1500 4835 50  0001 C CNN
F 1 "+5V" H 1515 5158 50  0000 C CNN
F 2 "" H 1500 4985 50  0001 C CNN
F 3 "" H 1500 4985 50  0001 C CNN
	1    1500 4985
	0    -1   -1   0   
$EndComp
Wire Wire Line
	1500 4985 1535 4985
Connection ~ 1535 4985
$Comp
L power:+5V #PWR030
U 1 1 630578E7
P 9345 5460
F 0 "#PWR030" H 9345 5310 50  0001 C CNN
F 1 "+5V" H 9360 5633 50  0000 C CNN
F 2 "" H 9345 5460 50  0001 C CNN
F 3 "" H 9345 5460 50  0001 C CNN
	1    9345 5460
	0    1    -1   0   
$EndComp
Wire Wire Line
	9345 5460 9310 5460
Connection ~ 9310 5460
$Comp
L Device:C_Small C8
U 1 1 6305E3AA
P 3210 4835
F 0 "C8" H 3302 4881 50  0000 L CNN
F 1 "0.1u" H 3302 4790 50  0000 L CNN
F 2 "Capacitor_SMD:C_0805_2012Metric_Pad1.18x1.45mm_HandSolder" H 3210 4835 50  0001 C CNN
F 3 "~" H 3210 4835 50  0001 C CNN
	1    3210 4835
	1    0    0    -1  
$EndComp
$Comp
L Device:C_Small C9
U 1 1 630611EA
P 7630 5315
F 0 "C9" H 7722 5361 50  0000 L CNN
F 1 "0.1u" H 7722 5270 50  0000 L CNN
F 2 "Capacitor_SMD:C_0805_2012Metric_Pad1.18x1.45mm_HandSolder" H 7630 5315 50  0001 C CNN
F 3 "~" H 7630 5315 50  0001 C CNN
	1    7630 5315
	-1   0    0    -1  
$EndComp
Wire Wire Line
	7630 5415 7630 5460
Wire Wire Line
	3205 4985 3210 4985
Wire Wire Line
	3210 4985 3210 4935
Wire Wire Line
	3205 5085 3205 4985
Connection ~ 3205 4985
Wire Wire Line
	7630 5560 7630 5460
Connection ~ 7630 5460
$Comp
L power:Earth #PWR023
U 1 1 63078C2E
P 3210 4710
F 0 "#PWR023" H 3210 4460 50  0001 C CNN
F 1 "Earth" H 3210 4560 50  0001 C CNN
F 2 "" H 3210 4710 50  0001 C CNN
F 3 "~" H 3210 4710 50  0001 C CNN
	1    3210 4710
	-1   0    0    1   
$EndComp
Wire Wire Line
	3210 4710 3210 4735
$Comp
L power:Earth #PWR027
U 1 1 6307EE84
P 7630 5185
F 0 "#PWR027" H 7630 4935 50  0001 C CNN
F 1 "Earth" H 7630 5035 50  0001 C CNN
F 2 "" H 7630 5185 50  0001 C CNN
F 3 "~" H 7630 5185 50  0001 C CNN
	1    7630 5185
	1    0    0    1   
$EndComp
Wire Wire Line
	7630 5215 7630 5185
$Comp
L power:Earth #PWR034
U 1 1 6308808C
P 8230 6300
F 0 "#PWR034" H 8230 6050 50  0001 C CNN
F 1 "Earth" H 8230 6150 50  0001 C CNN
F 2 "" H 8230 6300 50  0001 C CNN
F 3 "~" H 8230 6300 50  0001 C CNN
	1    8230 6300
	-1   0    0    -1  
$EndComp
Wire Wire Line
	8230 6300 8230 6280
Wire Wire Line
	8230 6280 8830 6280
Wire Wire Line
	8830 6280 8830 5760
Connection ~ 8230 6280
Wire Wire Line
	8230 6280 8230 6260
$Comp
L power:Earth #PWR033
U 1 1 63099FED
P 2605 5820
F 0 "#PWR033" H 2605 5570 50  0001 C CNN
F 1 "Earth" H 2605 5670 50  0001 C CNN
F 2 "" H 2605 5820 50  0001 C CNN
F 3 "~" H 2605 5820 50  0001 C CNN
	1    2605 5820
	1    0    0    -1  
$EndComp
Wire Wire Line
	2605 5820 2605 5805
Wire Wire Line
	2605 5805 2005 5805
Wire Wire Line
	2005 5805 2005 5285
Connection ~ 2605 5805
Wire Wire Line
	2605 5805 2605 5785
$Comp
L power:+3.3V #PWR026
U 1 1 630A5625
P 3295 4985
F 0 "#PWR026" H 3295 4835 50  0001 C CNN
F 1 "+3.3V" H 3310 5158 50  0000 C CNN
F 2 "" H 3295 4985 50  0001 C CNN
F 3 "" H 3295 4985 50  0001 C CNN
	1    3295 4985
	0    1    1    0   
$EndComp
Wire Wire Line
	3295 4985 3205 4985
$Comp
L power:+3.3V #PWR029
U 1 1 630ACEEC
P 7550 5460
F 0 "#PWR029" H 7550 5310 50  0001 C CNN
F 1 "+3.3V" H 7565 5633 50  0000 C CNN
F 2 "" H 7550 5460 50  0001 C CNN
F 3 "" H 7550 5460 50  0001 C CNN
	1    7550 5460
	0    -1   1    0   
$EndComp
Wire Wire Line
	7550 5460 7630 5460
$Comp
L Connector:Screw_Terminal_01x02 J8
U 1 1 630FBF32
P 1805 5085
F 0 "J8" H 1805 4880 50  0000 C CNN
F 1 "MOTOR1" H 1805 4805 50  0000 C CNN
F 2 "TerminalBlock_TE-Connectivity:TerminalBlock_TE_282834-2_1x02_P2.54mm_Horizontal" H 1805 5085 50  0001 C CNN
F 3 "~" H 1805 5085 50  0001 C CNN
	1    1805 5085
	-1   0    0    -1  
$EndComp
$Comp
L Connector:Screw_Terminal_01x02 J9
U 1 1 63100D4D
P 9030 5560
F 0 "J9" H 9110 5552 50  0000 L CNN
F 1 "MOTOR2" H 9110 5461 50  0000 L CNN
F 2 "TerminalBlock_TE-Connectivity:TerminalBlock_TE_282834-2_1x02_P2.54mm_Horizontal" H 9030 5560 50  0001 C CNN
F 3 "~" H 9030 5560 50  0001 C CNN
	1    9030 5560
	1    0    0    -1  
$EndComp
$Comp
L Connector_Generic:Conn_01x04 J10
U 1 1 6310C1AA
P 7145 1050
F 0 "J10" H 7225 1042 50  0000 L CNN
F 1 "Distance" H 7225 951 50  0000 L CNN
F 2 "Connector_PinHeader_2.54mm:PinHeader_1x04_P2.54mm_Vertical" H 7145 1050 50  0001 C CNN
F 3 "~" H 7145 1050 50  0001 C CNN
	1    7145 1050
	0    -1   -1   0   
$EndComp
$Comp
L power:Earth #PWR032
U 1 1 6310C1B0
P 6995 1250
F 0 "#PWR032" H 6995 1000 50  0001 C CNN
F 1 "Earth" H 6995 1100 50  0001 C CNN
F 2 "" H 6995 1250 50  0001 C CNN
F 3 "~" H 6995 1250 50  0001 C CNN
	1    6995 1250
	0    1    -1   0   
$EndComp
Wire Wire Line
	6995 1250 7045 1250
$Comp
L power:+3.3V #PWR031
U 1 1 6310C1B9
P 7345 1300
F 0 "#PWR031" H 7345 1150 50  0001 C CNN
F 1 "+3.3V" H 7360 1473 50  0000 C CNN
F 2 "" H 7345 1300 50  0001 C CNN
F 3 "" H 7345 1300 50  0001 C CNN
	1    7345 1300
	0    1    -1   0   
$EndComp
Wire Wire Line
	7345 1250 7345 1300
$Comp
L Connector:Screw_Terminal_01x02 J1
U 1 1 6312CB2F
P 1285 3595
F 0 "J1" H 1203 3270 50  0000 C CNN
F 1 "POWER" H 1203 3361 50  0000 C CNN
F 2 "TerminalBlock_TE-Connectivity:TerminalBlock_TE_282834-2_1x02_P2.54mm_Horizontal" H 1285 3595 50  0001 C CNN
F 3 "~" H 1285 3595 50  0001 C CNN
	1    1285 3595
	-1   0    0    1   
$EndComp
Wire Wire Line
	1485 3495 1485 3390
Wire Wire Line
	1485 3390 1755 3390
Wire Wire Line
	1485 3595 1485 3790
Wire Wire Line
	1485 3790 1755 3790
Connection ~ 1755 3790
$Comp
L Regulator_Linear:AZ1117-3.3 U1
U 1 1 63137DD7
P 2580 3390
F 0 "U1" H 2580 3632 50  0000 C CNN
F 1 "AZ1117-3.3" H 2580 3541 50  0000 C CNN
F 2 "Package_TO_SOT_SMD:SOT-89-3" H 2580 3640 50  0001 C CIN
F 3 "https://www.diodes.com/assets/Datasheets/AZ1117.pdf" H 2580 3390 50  0001 C CNN
	1    2580 3390
	1    0    0    -1  
$EndComp
Wire Wire Line
	2580 3690 2580 3790
Connection ~ 2580 3790
Wire Wire Line
	2580 3790 2480 3790
Wire Wire Line
	1755 3390 2280 3390
$Comp
L Connector_Generic:Conn_01x03 J5
U 1 1 63161BEB
P 4965 4075
F 0 "J5" H 4883 4392 50  0000 C CNN
F 1 "Servo" H 4883 4301 50  0000 C CNN
F 2 "Connector_PinHeader_2.54mm:PinHeader_1x03_P2.54mm_Vertical" H 4965 4075 50  0001 C CNN
F 3 "~" H 4965 4075 50  0001 C CNN
	1    4965 4075
	-1   0    0    1   
$EndComp
Wire Wire Line
	5210 3975 5165 3975
$Comp
L power:Earth #PWR016
U 1 1 63182C1B
P 5305 4205
F 0 "#PWR016" H 5305 3955 50  0001 C CNN
F 1 "Earth" H 5305 4055 50  0001 C CNN
F 2 "" H 5305 4205 50  0001 C CNN
F 3 "~" H 5305 4205 50  0001 C CNN
	1    5305 4205
	1    0    0    -1  
$EndComp
Wire Wire Line
	5305 4205 5305 4175
Wire Wire Line
	5305 4175 5165 4175
$Comp
L Connector_Generic:Conn_01x03 J7
U 1 1 631A73A0
P 8365 2060
F 0 "J7" H 8283 2377 50  0000 C CNN
F 1 "Servo" H 8283 2286 50  0000 C CNN
F 2 "Connector_PinHeader_2.54mm:PinHeader_1x03_P2.54mm_Vertical" H 8365 2060 50  0001 C CNN
F 3 "~" H 8365 2060 50  0001 C CNN
	1    8365 2060
	1    0    0    1   
$EndComp
$Comp
L power:Earth #PWR024
U 1 1 631A73AE
P 8025 2190
F 0 "#PWR024" H 8025 1940 50  0001 C CNN
F 1 "Earth" H 8025 2040 50  0001 C CNN
F 2 "" H 8025 2190 50  0001 C CNN
F 3 "~" H 8025 2190 50  0001 C CNN
	1    8025 2190
	-1   0    0    -1  
$EndComp
Wire Wire Line
	8025 2190 8025 2160
Wire Wire Line
	8025 2160 8165 2160
$Comp
L power:+5V #PWR09
U 1 1 631C0CE8
P 5165 4075
F 0 "#PWR09" H 5165 3925 50  0001 C CNN
F 1 "+5V" H 5180 4248 50  0000 C CNN
F 2 "" H 5165 4075 50  0001 C CNN
F 3 "" H 5165 4075 50  0001 C CNN
	1    5165 4075
	0    1    1    0   
$EndComp
$Comp
L power:+5V #PWR017
U 1 1 631CA000
P 8165 2060
F 0 "#PWR017" H 8165 1910 50  0001 C CNN
F 1 "+5V" H 8180 2233 50  0000 C CNN
F 2 "" H 8165 2060 50  0001 C CNN
F 3 "" H 8165 2060 50  0001 C CNN
	1    8165 2060
	0    -1   -1   0   
$EndComp
$Comp
L power:+3.3V #PWR0101
U 1 1 60E1CA18
P 9735 3290
F 0 "#PWR0101" H 9735 3140 50  0001 C CNN
F 1 "+3.3V" H 9750 3463 50  0000 C CNN
F 2 "" H 9735 3290 50  0001 C CNN
F 3 "" H 9735 3290 50  0001 C CNN
	1    9735 3290
	0    -1   1    0   
$EndComp
Wire Wire Line
	9735 3290 9770 3290
Wire Wire Line
	9380 3390 9425 3390
$Comp
L Device:C_Small C12
U 1 1 6331578A
P 4145 3655
F 0 "C12" H 4237 3701 50  0000 L CNN
F 1 "10u" H 4237 3610 50  0000 L CNN
F 2 "Capacitor_SMD:C_0805_2012Metric_Pad1.18x1.45mm_HandSolder" H 4145 3655 50  0001 C CNN
F 3 "~" H 4145 3655 50  0001 C CNN
	1    4145 3655
	1    0    0    -1  
$EndComp
Wire Wire Line
	4145 3390 4145 3555
Wire Wire Line
	4145 4065 4145 3755
Connection ~ 4145 3390
Wire Wire Line
	3230 4065 4145 4065
Wire Wire Line
	3230 3390 4145 3390
$Comp
L Connector_Generic:Conn_01x03 J3
U 1 1 62FD16F2
P 6270 1780
F 0 "J3" H 6188 2097 50  0000 C CNN
F 1 "UPDI" H 6188 2006 50  0000 C CNN
F 2 "Connector_PinHeader_2.54mm:PinHeader_1x03_P2.54mm_Vertical" H 6270 1780 50  0001 C CNN
F 3 "~" H 6270 1780 50  0001 C CNN
	1    6270 1780
	-1   0    0    -1  
$EndComp
Wire Wire Line
	6470 1680 6500 1680
Wire Wire Line
	6500 1680 6500 1630
Wire Wire Line
	6470 1880 6500 1880
Wire Wire Line
	6500 1880 6500 1930
Wire Wire Line
	6470 1780 6755 1780
Wire Wire Line
	6755 1780 6755 2010
$Comp
L ATTINY426-XUR:ATTINY426-XUR U2
U 1 1 62F764E2
P 6355 4635
F 0 "U2" H 7405 4900 50  0000 C CNN
F 1 "ATTINY426-XUR" H 7405 4809 50  0000 C CNN
F 2 "ATTINY426-XUR:SOP65P780X200-20N" H 8305 4735 50  0001 L CNN
F 3 "https://mouser.com/datasheet/2/268/ATtiny1624_26_27_DataSheet_DS40002234A-1984012.pdf" H 8305 4635 50  0001 L CNN
F 4 "8-bit Microcontrollers - MCU 20MHz, 4KB, SSOP20, Ind 85C, Green, T&R" H 8305 4535 50  0001 L CNN "Description"
F 5 "2" H 8305 4435 50  0001 L CNN "Height"
F 6 "Microchip" H 8305 4335 50  0001 L CNN "Manufacturer_Name"
F 7 "ATTINY426-XUR" H 8305 4235 50  0001 L CNN "Manufacturer_Part_Number"
F 8 "579-ATTINY426-XUR" H 8305 4135 50  0001 L CNN "Mouser Part Number"
F 9 "https://www.mouser.co.uk/ProductDetail/Microchip-Technology-Atmel/ATTINY426-XUR?qs=pUKx8fyJudDqk85TWghK0w%3D%3D" H 8305 4035 50  0001 L CNN "Mouser Price/Stock"
F 10 "" H 8305 3935 50  0001 L CNN "Arrow Part Number"
F 11 "" H 8305 3835 50  0001 L CNN "Arrow Price/Stock"
	1    6355 4635
	0    -1   -1   0   
$EndComp
Wire Wire Line
	8775 3040 8775 3880
Wire Wire Line
	9425 3240 9425 3390
Wire Wire Line
	9380 3390 8685 3390
Wire Wire Line
	8685 3390 8685 2535
Wire Wire Line
	8685 2535 7255 2535
Connection ~ 9380 3390
Wire Wire Line
	7255 4635 8775 4635
Wire Wire Line
	8775 4635 8775 3880
Connection ~ 8775 3880
Wire Wire Line
	7155 2535 7155 1960
Wire Wire Line
	7155 1960 8165 1960
Wire Wire Line
	6355 2500 6355 2535
$Comp
L power:Earth #PWR0102
U 1 1 630F9CA7
P 6355 2500
F 0 "#PWR0102" H 6355 2250 50  0001 C CNN
F 1 "Earth" H 6355 2350 50  0001 C CNN
F 2 "" H 6355 2500 50  0001 C CNN
F 3 "~" H 6355 2500 50  0001 C CNN
	1    6355 2500
	1    0    0    1   
$EndComp
Wire Wire Line
	6555 4635 6555 4740
Wire Wire Line
	6555 4740 5990 4740
Wire Wire Line
	5990 4740 5990 3915
Wire Wire Line
	5990 3915 5210 3915
Wire Wire Line
	5210 3915 5210 3975
Wire Wire Line
	6355 4635 6040 4635
Wire Wire Line
	6040 4635 6040 3390
Wire Wire Line
	6040 3390 4145 3390
$Comp
L my_lib:Wiiconnector J6
U 1 1 6307C67F
P 10070 3390
F 0 "J6" H 10070 3715 50  0000 C CNN
F 1 "Wiiconnector" H 10070 3624 50  0000 C CNN
F 2 "my_footprints:Wii connector" H 9870 3390 50  0001 C CNN
F 3 "" H 9870 3390 50  0001 C CNN
	1    10070 3390
	1    0    0    -1  
$EndComp
Wire Wire Line
	9425 3490 9770 3490
Wire Wire Line
	10370 3515 10370 3490
Wire Wire Line
	9380 3705 10470 3705
Wire Wire Line
	10470 3705 10470 3290
Wire Wire Line
	10470 3290 10370 3290
Wire Wire Line
	9380 3390 9380 3705
Wire Wire Line
	6755 2210 6755 2535
Wire Wire Line
	6555 2535 6555 2190
Wire Wire Line
	5365 2190 6555 2190
$Comp
L Device:R_Small R6
U 1 1 630DA7A3
P 1065 3445
F 0 "R6" V 1261 3445 50  0000 C CNN
F 1 "100k" V 1170 3445 50  0000 C CNN
F 2 "Resistor_SMD:R_0805_2012Metric_Pad1.20x1.40mm_HandSolder" H 1065 3445 50  0001 C CNN
F 3 "~" H 1065 3445 50  0001 C CNN
	1    1065 3445
	-1   0    0    1   
$EndComp
$Comp
L Device:R_Small R7
U 1 1 630DEB44
P 1065 3710
F 0 "R7" V 1261 3710 50  0000 C CNN
F 1 "33k" V 1170 3710 50  0000 C CNN
F 2 "Resistor_SMD:R_0805_2012Metric_Pad1.20x1.40mm_HandSolder" H 1065 3710 50  0001 C CNN
F 3 "~" H 1065 3710 50  0001 C CNN
	1    1065 3710
	-1   0    0    1   
$EndComp
Wire Wire Line
	1065 3610 1065 3580
Wire Wire Line
	1065 3345 1065 3285
Wire Wire Line
	1065 3285 1485 3285
Wire Wire Line
	1485 3285 1485 3390
Connection ~ 1485 3390
Wire Wire Line
	1065 3810 1065 3855
Wire Wire Line
	1065 3855 1485 3855
Wire Wire Line
	1485 3855 1485 3790
Connection ~ 1485 3790
Wire Wire Line
	1065 3580 760  3580
Wire Wire Line
	760  3580 760  4425
Wire Wire Line
	760  4425 5805 4425
Wire Wire Line
	5805 4425 5805 4880
Wire Wire Line
	5805 4880 6655 4880
Wire Wire Line
	6655 4880 6655 4635
Connection ~ 1065 3580
Wire Wire Line
	1065 3580 1065 3545
Wire Wire Line
	7055 2535 7055 1865
Wire Wire Line
	7055 1865 7245 1865
Wire Wire Line
	7245 1865 7245 1250
Wire Wire Line
	6955 2535 6955 1805
Wire Wire Line
	6955 1805 7145 1805
Wire Wire Line
	7145 1805 7145 1250
$Comp
L Device:R_Small R3
U 1 1 63173E42
P 4200 1670
F 0 "R3" V 4396 1670 50  0000 C CNN
F 1 "1k" V 4305 1670 50  0000 C CNN
F 2 "Resistor_SMD:R_0805_2012Metric_Pad1.20x1.40mm_HandSolder" H 4200 1670 50  0001 C CNN
F 3 "~" H 4200 1670 50  0001 C CNN
	1    4200 1670
	0    1    -1   0   
$EndComp
$Comp
L Transistor_FET:2N7002 Q1
U 1 1 6318135A
P 3855 1670
F 0 "Q1" V 4104 1670 50  0000 C CNN
F 1 "2N7002" V 4195 1670 50  0000 C CNN
F 2 "Package_TO_SOT_SMD:SOT-23" H 4055 1595 50  0001 L CIN
F 3 "https://www.onsemi.com/pub/Collateral/NDS7002A-D.PDF" H 3855 1670 50  0001 L CNN
	1    3855 1670
	-1   0    0    -1  
$EndComp
$Comp
L Device:R_Small R4
U 1 1 631888C1
P 4085 1845
F 0 "R4" V 4281 1845 50  0000 C CNN
F 1 "100k" V 4190 1845 50  0000 C CNN
F 2 "Resistor_SMD:R_0805_2012Metric_Pad1.20x1.40mm_HandSolder" H 4085 1845 50  0001 C CNN
F 3 "~" H 4085 1845 50  0001 C CNN
	1    4085 1845
	1    0    0    1   
$EndComp
$Comp
L Connector_Generic:Conn_01x02 J2
U 1 1 6318EBC7
P 3755 1240
F 0 "J2" H 3835 1232 50  0000 L CNN
F 1 "BEEP" H 3835 1141 50  0000 L CNN
F 2 "Buzzer_Beeper:Buzzer_12x9.5RM7.6" H 3755 1240 50  0001 C CNN
F 3 "~" H 3755 1240 50  0001 C CNN
	1    3755 1240
	0    1    -1   0   
$EndComp
Wire Wire Line
	3755 1440 3755 1470
Wire Wire Line
	4055 1670 4085 1670
Wire Wire Line
	4085 1745 4085 1670
Connection ~ 4085 1670
Wire Wire Line
	4085 1670 4100 1670
$Comp
L power:+3.3V #PWR0103
U 1 1 631A476B
P 3530 1440
F 0 "#PWR0103" H 3530 1290 50  0001 C CNN
F 1 "+3.3V" H 3545 1613 50  0000 C CNN
F 2 "" H 3530 1440 50  0001 C CNN
F 3 "" H 3530 1440 50  0001 C CNN
	1    3530 1440
	0    -1   -1   0   
$EndComp
$Comp
L power:Earth #PWR0104
U 1 1 631ADC2B
P 3755 2000
F 0 "#PWR0104" H 3755 1750 50  0001 C CNN
F 1 "Earth" H 3755 1850 50  0001 C CNN
F 2 "" H 3755 2000 50  0001 C CNN
F 3 "~" H 3755 2000 50  0001 C CNN
	1    3755 2000
	-1   0    0    -1  
$EndComp
Wire Wire Line
	3755 2000 3755 1945
Wire Wire Line
	4085 1945 3755 1945
Connection ~ 3755 1945
Wire Wire Line
	3755 1945 3755 1870
Wire Wire Line
	3530 1440 3655 1440
Wire Wire Line
	6455 2535 6455 2065
Wire Wire Line
	6455 2065 5780 2065
Wire Wire Line
	5780 2065 5780 1670
Wire Wire Line
	5780 1670 4300 1670
$Comp
L Connector_Generic:Conn_01x03 J11
U 1 1 631FBF0F
P 6455 6140
F 0 "J11" H 6373 6457 50  0000 C CNN
F 1 "NEO_PIX" H 6373 6366 50  0000 C CNN
F 2 "Connector_PinHeader_2.54mm:PinHeader_1x03_P2.54mm_Vertical" H 6455 6140 50  0001 C CNN
F 3 "~" H 6455 6140 50  0001 C CNN
	1    6455 6140
	0    1    1    0   
$EndComp
$Comp
L power:+3.3V #PWR0105
U 1 1 6320A392
P 6350 5900
F 0 "#PWR0105" H 6350 5750 50  0001 C CNN
F 1 "+3.3V" H 6365 6073 50  0000 C CNN
F 2 "" H 6350 5900 50  0001 C CNN
F 3 "" H 6350 5900 50  0001 C CNN
	1    6350 5900
	0    -1   1    0   
$EndComp
Wire Wire Line
	6350 5900 6355 5900
Wire Wire Line
	6355 5900 6355 5940
$Comp
L power:Earth #PWR0106
U 1 1 63220925
P 6555 5900
F 0 "#PWR0106" H 6555 5650 50  0001 C CNN
F 1 "Earth" H 6555 5750 50  0001 C CNN
F 2 "" H 6555 5900 50  0001 C CNN
F 3 "~" H 6555 5900 50  0001 C CNN
	1    6555 5900
	1    0    0    1   
$EndComp
Wire Wire Line
	6555 5900 6555 5940
$Comp
L Connector_Generic:Conn_01x03 J4
U 1 1 6323C38A
P 8945 1590
F 0 "J4" H 8863 1907 50  0000 C CNN
F 1 "Add" H 8863 1816 50  0000 C CNN
F 2 "Connector_PinHeader_2.54mm:PinHeader_1x03_P2.54mm_Vertical" H 8945 1590 50  0001 C CNN
F 3 "~" H 8945 1590 50  0001 C CNN
	1    8945 1590
	1    0    0    1   
$EndComp
$Comp
L power:Earth #PWR0107
U 1 1 6323C390
P 8605 1720
F 0 "#PWR0107" H 8605 1470 50  0001 C CNN
F 1 "Earth" H 8605 1570 50  0001 C CNN
F 2 "" H 8605 1720 50  0001 C CNN
F 3 "~" H 8605 1720 50  0001 C CNN
	1    8605 1720
	-1   0    0    -1  
$EndComp
Wire Wire Line
	8605 1720 8605 1690
Wire Wire Line
	8605 1690 8745 1690
$Comp
L power:+3.3V #PWR0108
U 1 1 6324BEB4
P 8690 1590
F 0 "#PWR0108" H 8690 1440 50  0001 C CNN
F 1 "+3.3V" H 8705 1763 50  0000 C CNN
F 2 "" H 8690 1590 50  0001 C CNN
F 3 "" H 8690 1590 50  0001 C CNN
	1    8690 1590
	0    -1   -1   0   
$EndComp
Wire Wire Line
	8690 1590 8745 1590
Wire Wire Line
	6855 2535 6855 1490
Wire Wire Line
	6855 1490 8745 1490
$Comp
L Connector_Generic:Conn_01x03 J12
U 1 1 6326DE02
P 4455 6475
F 0 "J12" H 4373 6792 50  0000 C CNN
F 1 "Add" H 4373 6701 50  0000 C CNN
F 2 "Connector_PinHeader_2.54mm:PinHeader_1x03_P2.54mm_Vertical" H 4455 6475 50  0001 C CNN
F 3 "~" H 4455 6475 50  0001 C CNN
	1    4455 6475
	-1   0    0    1   
$EndComp
$Comp
L power:Earth #PWR0109
U 1 1 6326DE08
P 4795 6605
F 0 "#PWR0109" H 4795 6355 50  0001 C CNN
F 1 "Earth" H 4795 6455 50  0001 C CNN
F 2 "" H 4795 6605 50  0001 C CNN
F 3 "~" H 4795 6605 50  0001 C CNN
	1    4795 6605
	1    0    0    -1  
$EndComp
Wire Wire Line
	4795 6605 4795 6575
Wire Wire Line
	4795 6575 4655 6575
$Comp
L power:+3.3V #PWR0110
U 1 1 6326DE10
P 4710 6475
F 0 "#PWR0110" H 4710 6325 50  0001 C CNN
F 1 "+3.3V" H 4725 6648 50  0000 C CNN
F 2 "" H 4710 6475 50  0001 C CNN
F 3 "" H 4710 6475 50  0001 C CNN
	1    4710 6475
	0    1    -1   0   
$EndComp
Wire Wire Line
	4710 6475 4655 6475
Wire Wire Line
	6755 4635 6755 6375
Wire Wire Line
	4655 6375 6755 6375
Wire Wire Line
	7630 5760 7155 5760
Wire Wire Line
	7155 5760 7155 4635
Wire Wire Line
	7630 5660 7055 5660
Wire Wire Line
	7055 5660 7055 4635
Wire Wire Line
	6955 5185 6955 4635
Wire Wire Line
	3205 5185 6955 5185
Wire Wire Line
	6855 5285 6855 4635
Wire Wire Line
	3205 5285 6855 5285
$Comp
L Device:R_Small R8
U 1 1 6337343D
P 6455 5675
F 0 "R8" V 6651 5675 50  0000 C CNN
F 1 "100" V 6560 5675 50  0000 C CNN
F 2 "Resistor_SMD:R_0805_2012Metric_Pad1.20x1.40mm_HandSolder" H 6455 5675 50  0001 C CNN
F 3 "~" H 6455 5675 50  0001 C CNN
	1    6455 5675
	-1   0    0    1   
$EndComp
Wire Wire Line
	6455 5775 6455 5940
Wire Wire Line
	6455 5575 6455 4635
$Comp
L Connector_Generic:Conn_01x03 J13
U 1 1 633D06D6
P 6525 955
F 0 "J13" H 6443 1272 50  0000 C CNN
F 1 "Add" H 6443 1181 50  0000 C CNN
F 2 "Connector_PinHeader_2.54mm:PinHeader_1x03_P2.54mm_Vertical" H 6525 955 50  0001 C CNN
F 3 "~" H 6525 955 50  0001 C CNN
	1    6525 955 
	1    0    0    1   
$EndComp
$Comp
L power:Earth #PWR010
U 1 1 633D06DC
P 6185 1085
F 0 "#PWR010" H 6185 835 50  0001 C CNN
F 1 "Earth" H 6185 935 50  0001 C CNN
F 2 "" H 6185 1085 50  0001 C CNN
F 3 "~" H 6185 1085 50  0001 C CNN
	1    6185 1085
	-1   0    0    -1  
$EndComp
Wire Wire Line
	6185 1085 6185 1055
Wire Wire Line
	6185 1055 6325 1055
$Comp
L power:+3.3V #PWR08
U 1 1 633D06E4
P 6270 955
F 0 "#PWR08" H 6270 805 50  0001 C CNN
F 1 "+3.3V" H 6285 1128 50  0000 C CNN
F 2 "" H 6270 955 50  0001 C CNN
F 3 "" H 6270 955 50  0001 C CNN
	1    6270 955 
	0    -1   -1   0   
$EndComp
Wire Wire Line
	6270 955  6325 955 
Wire Wire Line
	6655 2535 6655 1375
Wire Wire Line
	6655 1375 6000 1375
Wire Wire Line
	6000 1375 6000 855 
Wire Wire Line
	6000 855  6325 855 
$EndSCHEMATC
